  MPI: initialised 2 process(es)
  MPI: rank = 0, PID = 22845
  MPI: rank = 1, PID = 22846
  running CALC for EnKF-C version 1.32.1:
    command = "./enkf_calc --forecast-stats-only stats.prm"
    dir = "/home/pavel/src/enkf-c/trunk/enkf/examples/1"
  2016-02-16 08:55:29
  reading system specs from "stats.prm":
    MODE = EnOI
    MODEL PRM = "model.prm"
    GRID PRM = "grid.prm"
    OBS TYPES PRM = "obstypes.prm"
    DATE = "6565.5 days since 1990-01-01"
    OBS PRM = "obs.prm"
    BGDIR = "background_6565"
    REGION Global: x = [0.0, 360.0], y = [-90.0, 90.0], z intervals = [0 50] [50 500] [500 9999] 
    SOBSTRIDE = 1
    EnKF flags:
      enkf_exitaction  = [BACKTRACE]
      enkf_obstype     = [VALUE]
    compile flags:
      CHECK_X5         = [-]
      CHECK_G          = [-]
      SHUFFLE_ROWS     = [-]
      HE_VIAFILE       = [-]
      GRIDNODES_WRITE  = [-]
      INTERNAL_QSORT_R = [-]
  initialising the system:
  reading observation type specs from "obstypes.prm":
    NAME = SLA
      VAR = eta_t
      ID = 0
      ISSURFACE = yes
      OFFSET = conf/eta_mean-bran.nc eta_t
      HFUNCTION = standard
      ALLOWED MIN = -1
      ALLOWED MAX = 1
      ASYNCHRONOUS = no
      LOCRAD  = nan
      WEIGHT =  1
      RFACTOR = 1
    NAME = SST
      VAR = temp
      ID = 1
      ISSURFACE = yes
      HFUNCTION = standard
      ALLOWED MIN = -2
      ALLOWED MAX = 42
      ASYNCHRONOUS = no
      LOCRAD  = nan
      WEIGHT =  1
      RFACTOR = 2
    NAME = TEM
      VAR = temp
      ID = 2
      ISSURFACE = no
      HFUNCTION = standard
      ALLOWED MIN = -2
      ALLOWED MAX = 42
      ASYNCHRONOUS = no
      LOCRAD  = 800
      WEIGHT =  1
      RFACTOR = 4
    NAME = SAL
      VAR = salt
      ID = 3
      ISSURFACE = no
      HFUNCTION = standard
      ALLOWED MIN = 28
      ALLOWED MAX = 39
      ASYNCHRONOUS = no
      LOCRAD  = 800
      WEIGHT =  1
      RFACTOR = 4
    grid prm info:
      NAME = "t-grid"
      FILE = "conf/grid_spec.nc"
      XDIMNAME = "grid_x_T"
      YDIMNAME = "grid_y_T"
      ZDIMNAME = "zt"
      XVARNAME = "grid_x_T"
      YVARNAME = "grid_y_T"
      ZVARNAME = "zt"
      DEPTHVARNAME = "depth_t"
      NUMLEVELSVARNAME = "num_levels"
    grid info:
      hor type = LATLON_REGULAR
      periodic by X = no
      periodic by Y = no
      dims = 100 x 100 x 2
      longitude range = [0.000, 360.000]
      vert type = Z
    model info:
      name = Tasman
      5 variables:
        eta_t:
          grid = "t-grid"
          inflation = 1.000 1.00
        temp:
          grid = "t-grid"
          inflation = 1.000 1.00
        salt:
          grid = "t-grid"
          inflation = 1.000 1.00
        u:
          grid = "t-grid"
          inflation = 1.000 1.00
        v:
          grid = "t-grid"
          inflation = 1.000 1.00
      0 modeldata:
  reading observations from "observations.nc":
    3864 observations
    calculating obs stats:
  calculating ensemble observations:
  2016-02-16 08:55:29
    ensemble size = 1
    distributing iterations:
      processes get 1 or 0 iterations
    SLA +
    SST +
    TEM +
    SAL +
  adding forecast innovations and spread to "observations.nc":
  2016-02-16 08:55:29
  printing observation statistics:
    region obs.type   # obs.  |for.inn.| for.inn.
    ---------------------------------------------
    Global
           SLA           643    0.081      0.027  
             j1          246    0.086      0.040  
             n1          377    0.077      0.015  
             N/A          20    0.096      0.086  
           SST          3207    0.462     -0.247  
             AVHRR      2039    0.469     -0.220  
             WindSat     848    0.471     -0.307  
             N/A         320    0.392     -0.255  
           TEM             7    1.015      0.512  
             ARGO          7    1.015      0.512  
             0-50m         2    1.471      1.471  
             50-500m       5    0.832      0.129  
             500-9999m     0     -nan       -nan  
           SAL             7    0.077      0.055  
             ARGO          7    0.077      0.055  
             0-50m         2    0.088      0.074  
             50-500m       5    0.072      0.047  
             500-9999m     0     -nan       -nan  
  2016-02-16 08:55:29
  finished
